{
  "info" : {
    "version" : 1,
    "author" : "xcode"
  },
  "colors" : [
    {
      "idiom" : "universal",
      "color" : {
        "color-space" : "srgb",
        "components" : {
          "red" : 0.1299999952316284,
          "alpha" : 1,
          "blue" : 0.550000011920929,
          "green" : 0.5799999833106995
        }
      }
    }
  ]
}