{
  "info" : {
    "version" : 1,
    "author" : "xcode"
  },
  "colors" : [
    {
      "idiom" : "universal",
      "color" : {
        "color-space" : "srgb",
        "components" : {
          "red" : 0.42,
          "alpha" : 1,
          "blue" : 0.53,
          "green" : 0.6899999999999999
        }
      }
    }
  ]
}